.................
----------------------------------------------------------------------
Ran 17 tests in 189.378s

OK
Name             Stmts   Miss Branch BrPart  Cover   Missing
------------------------------------------------------------
Collatz.py          69     34     38      1    45%   166-213, 146->166
TestCollatz.py      77      4      0      0    95%   37-40
------------------------------------------------------------
TOTAL              146     38     38      1    66%
